<?xml version="1.0" encoding="UTF-8" standalone="no"?>
<svg width="20px" height="20px" viewBox="0 0 20 20" version="1.1" xmlns="http://www.w3.org/2000/svg">
    <g stroke="none" stroke-width="1" fill="none" fill-rule="evenodd">
        <g fill="#333333">
            <path d="M16,6.5 L16,2 C16,1.3 15.8,1 15.4,1 C15.2,1 14.9,1.1 14.6,1.5 L10.8,5.4 C10.5,5.7 9.7,6 9.1,6 L2,6 C1.4,6 1,6.5 1,7 L1,11 C1,11.5 1.4,12 2,12 L3.1,12 L4,17 C4.1,17.5 4.6,18 5.2,18 L7.2,18 C7.8,18 8.1,17.6 8,17 L7.1,12 L8.9,12 C9.4,12 10.2,12.3 10.6,12.7 L14.6,16.6 C14.9,16.9 15.2,17 15.4,17 C15.8,17 16,16.6 16,16 L16,11.5 L18,10.5 L18,7.5 L16,6.5 L16,6.5 Z M5.2,17 C5.1,17 5,16.9 5,16.8 L4.1,12 L6.1,12 L7,17 L5.2,17 L5.2,17 Z M2,11 L2,7 L8,7 L8,11 L2,11 L2,11 Z M15,6 L15,12 L15,15.6 L11.3,12 C10.7,11.5 9.8,11.1 9,11 L9,7 L9.1,7 C10,7 11,6.6 11.6,6 L15,2.5 L15,6 L15,6 Z M17,9.9 L16,10.4 L16,7.6 L17,8.1 L17,9.9 L17,9.9 Z"></path>
        </g>
    </g>
</svg>